…
vancouver_trees_summary <- vancouver_trees %>%
  group_by(neighbourhood_name) %>%
  summarise(
    num_of_species = n_distinct(species_name),
    average_age = mean(age, na.rm = TRUE),
    max_age = max(age, na.rm = TRUE),
    min_age = min(age, na.rm = TRUE)
  )
print(vancouver_trees_summary)
```

    ## # A tibble: 22 × 5
    ##    neighbourhood_name       num_of_species average_age   max_age    min_age  
    ##    <chr>                             <int> <drtn>        <drtn>     <drtn>   
    ##  1 ARBUTUS-RIDGE                       121 7249.521 days 12413 days 1664 days
    ##  2 DOWNTOWN                             79 6699.376 days 12391 days 1633 days
    ##  3 DUNBAR-SOUTHLANDS                   161 6917.902 days 12410 days 1643 days
    ##  4 FAIRVIEW                            119 7159.542 days 12343 days 1637 days
    ##  5 GRANDVIEW-WOODLAND                  146 7069.201 days 12388 days 1595 days
    ##  6 HASTINGS-SUNRISE                    176 7704.686 days 12348 days 1640 days
    ##  7 KENSINGTON-CEDAR COTTAGE            159 7513.049 days 12382 days 1644 days
    ##  8 KERRISDALE                          138 6817.113 days 12402 days 1643 days
    ##  9 KILLARNEY                           122 7203.727 days 12410 days 1605 days
    ## 10 KITSILANO                           171 6784.177 days 12314 days 1633 days
    ## # ℹ 12 more rows
…
``` r
# To observe the relationship between tree species and tree ages, we can calculate minimal age, maximal age, average age and the range of different tree species
vancouver_trees %>%
  group_by(species_name) %>%
  filter(!all(is.na(age))) %>% # remove entries if all values in age column are NA
  summarise(
    average_age = mean(age, na.rm = TRUE),
    min_age = min(age, na.rm = TRUE),
    max_age = max(age, na.rm = TRUE),
    range_width = max_age - min_age
  )
```

    ## # A tibble: 222 × 5
    ##    species_name   average_age   min_age   max_age    range_width
    ##    <chr>          <drtn>        <drtn>    <drtn>     <drtn>     
    ##  1 ABIES          6490.250 days 3256 days  7628 days  4372 days 
    ##  2 ACERIFOLIA   X 8249.599 days 2429 days 12013 days  9584 days 
    ##  3 ACUMINATA      7773.667 days 7531 days  8237 days   706 days 
    ##  4 ACUTISSIMA     9770.878 days 6231 days 11934 days  5703 days 
    ##  5 ALBA           5207.750 days 1731 days 10085 days  8354 days 
    ##  6 ALBA-SINENSIS  8946.667 days 8944 days  8948 days     4 days 
    ##  7 ALNIFOLIA      8876.964 days 2725 days 12019 days  9294 days 
    ##  8 AMERICANA      7521.972 days 1672 days 12321 days 10649 days 
    ##  9 ANAGYROIDES    8577.000 days 8577 days  8577 days     0 days 
    ## 10 ANTARTICA      8623.708 days 4597 days 10584 days  5987 days 
    ## # ℹ 212 more rows
…
**For research question 3:** **Summarizing: Option 3**

``` r
# From an existing numerical variable 'date_planted', I created a new categorical variable called 'year_interval' that represents the intervals of 5 years
vancouver_trees_updated <- vancouver_trees %>%
  filter(!is.na(date_planted)) %>% 
  mutate(
    year = as.integer(format(date_planted, "%Y")),
    year_interval = paste0(5 * floor(year/5), "-", 5 * floor(year/5) + 5) 
  )

print(vancouver_trees_updated)
```

    ## # A tibble: 70,063 × 23
    ##    tree_id civic_number std_street    genus_name species_name cultivar_name  
    ##      <dbl>        <dbl> <chr>         <chr>      <chr>        <chr>          
    ##  1  149556          494 W 58TH AV     ULMUS      AMERICANA    BRANDON        
    ##  2  149563          450 W 58TH AV     ZELKOVA    SERRATA      <NA>           
    ##  3  149579         4994 WINDSOR ST    STYRAX     JAPONICA     <NA>           
    ##  4  149590          858 E 39TH AV     FRAXINUS   AMERICANA    AUTUMN APPLAUSE
    ##  5  149604         5032 WINDSOR ST    ACER       CAMPESTRE    <NA>           
    ##  6  149617         4909 SHERBROOKE ST ACER       PLATANOIDES  COLUMNARE      
    ##  7  149618         4925 SHERBROOKE ST ACER       PLATANOIDES  COLUMNARE      
    ##  8  149619         4969 SHERBROOKE ST ACER       PLATANOIDES  COLUMNARE      
    ##  9  149625          720 E 39TH AV     FRAXINUS   AMERICANA    AUTUMN APPLAUSE
    ## 10  149626          736 E 39TH AV     TILIA      EUCHLORA   X <NA>           
    ## # ℹ 70,053 more rows
    ## # ℹ 17 more variables: common_name <chr>, assigned <chr>, root_barrier <chr>,
    ## #   plant_area <chr>, on_street_block <dbl>, on_street <chr>,
    ## #   neighbourhood_name <chr>, street_side_name <chr>, height_range_id <dbl>,
    ## #   diameter <dbl>, curb <chr>, date_planted <date>, longitude <dbl>,
    ## #   latitude <dbl>, age <drtn>, year <int>, year_interval <chr>
…
vancouver_trees_diameter_category_added <- vancouver_trees %>%
  filter(!is.na(diameter)) %>%
  mutate(
    diameter_numeric = as.numeric(diameter),
    diameter_category = case_when(
      is.na(diameter_numeric) ~ "Unknown",
      diameter_numeric <= 10 ~ "Small",
      diameter_numeric > 10 & diameter_numeric <= 25 ~ "Medium",
      diameter_numeric > 25 ~ "Large"
    )
  )
print(vancouver_trees_diameter_category_added)
```

    ## # A tibble: 146,611 × 23
    ##    tree_id civic_number std_street    genus_name species_name cultivar_name  
    ##      <dbl>        <dbl> <chr>         <chr>      <chr>        <chr>          
    ##  1  149556          494 W 58TH AV     ULMUS      AMERICANA    BRANDON        
    ##  2  149563          450 W 58TH AV     ZELKOVA    SERRATA      <NA>           
    ##  3  149579         4994 WINDSOR ST    STYRAX     JAPONICA     <NA>           
    ##  4  149590          858 E 39TH AV     FRAXINUS   AMERICANA    AUTUMN APPLAUSE
    ##  5  149604         5032 WINDSOR ST    ACER       CAMPESTRE    <NA>           
    ##  6  149616          585 W 61ST AV     PYRUS      CALLERYANA   CHANTICLEER    
    ##  7  149617         4909 SHERBROOKE ST ACER       PLATANOIDES  COLUMNARE      
    ##  8  149618         4925 SHERBROOKE ST ACER       PLATANOIDES  COLUMNARE      
    ##  9  149619         4969 SHERBROOKE ST ACER       PLATANOIDES  COLUMNARE      
    ## 10  149625          720 E 39TH AV     FRAXINUS   AMERICANA    AUTUMN APPLAUSE
    ## # ℹ 146,601 more rows
    ## # ℹ 17 more variables: common_name <chr>, assigned <chr>, root_barrier <chr>,
    ## #   plant_area <chr>, on_street_block <dbl>, on_street <chr>,
    ## #   neighbourhood_name <chr>, street_side_name <chr>, height_range_id <dbl>,
    ## #   diameter <dbl>, curb <chr>, date_planted <date>, longitude <dbl>,
    ## #   latitude <dbl>, age <drtn>, diameter_numeric <dbl>, diameter_category <chr>
…
<!--------------------------- Start your work below --------------------------->

To untidy the data, I am thinking to combine two meaningful attributes
“latitude” and “longitude” into a new column called “coordinates”.

``` r
vancouver_trees <- vancouver_trees %>%
  tidyr::unite("coordinates", latitude, longitude, sep = ", ", remove = TRUE)

print(vancouver_trees)
```

    ## # A tibble: 146,611 × 20
    ##    tree_id civic_number std_street    genus_name species_name cultivar_name  
    ##      <dbl>        <dbl> <chr>         <chr>      <chr>        <chr>          
    ##  1  149556          494 W 58TH AV     ULMUS      AMERICANA    BRANDON        
    ##  2  149563          450 W 58TH AV     ZELKOVA    SERRATA      <NA>           
    ##  3  149579         4994 WINDSOR ST    STYRAX     JAPONICA     <NA>           
    ##  4  149590          858 E 39TH AV     FRAXINUS   AMERICANA    AUTUMN APPLAUSE
    ##  5  149604         5032 WINDSOR ST    ACER       CAMPESTRE    <NA>           
    ##  6  149616          585 W 61ST AV     PYRUS      CALLERYANA   CHANTICLEER    
    ##  7  149617         4909 SHERBROOKE ST ACER       PLATANOIDES  COLUMNARE      
    ##  8  149618         4925 SHERBROOKE ST ACER       PLATANOIDES  COLUMNARE      
    ##  9  149619         4969 SHERBROOKE ST ACER       PLATANOIDES  COLUMNARE      
    ## 10  149625          720 E 39TH AV     FRAXINUS   AMERICANA    AUTUMN APPLAUSE
    ## # ℹ 146,601 more rows
    ## # ℹ 14 more variables: common_name <chr>, assigned <chr>, root_barrier <chr>,
    ## #   plant_area <chr>, on_street_block <dbl>, on_street <chr>,
    ## #   neighbourhood_name <chr>, street_side_name <chr>, height_range_id <dbl>,
    ## #   diameter <dbl>, curb <chr>, date_planted <date>, coordinates <chr>,
    ## #   age <drtn>

To tidy it back, we will split the coordinates column.

``` r
vancouver_trees <- vancouver_trees %>%
  tidyr::separate(coordinates, into = c("latitude", "longitude"), sep = ", ", remove = TRUE, convert = TRUE)


print(vancouver_trees)
```

    ## # A tibble: 146,611 × 21
    ##    tree_id civic_number std_street    genus_name species_name cultivar_name  
    ##      <dbl>        <dbl> <chr>         <chr>      <chr>        <chr>          
    ##  1  149556          494 W 58TH AV     ULMUS      AMERICANA    BRANDON        
    ##  2  149563          450 W 58TH AV     ZELKOVA    SERRATA      <NA>           
    ##  3  149579         4994 WINDSOR ST    STYRAX     JAPONICA     <NA>           
    ##  4  149590          858 E 39TH AV     FRAXINUS   AMERICANA    AUTUMN APPLAUSE
    ##  5  149604         5032 WINDSOR ST    ACER       CAMPESTRE    <NA>           
    ##  6  149616          585 W 61ST AV     PYRUS      CALLERYANA   CHANTICLEER    
    ##  7  149617         4909 SHERBROOKE ST ACER       PLATANOIDES  COLUMNARE      
    ##  8  149618         4925 SHERBROOKE ST ACER       PLATANOIDES  COLUMNARE      
    ##  9  149619         4969 SHERBROOKE ST ACER       PLATANOIDES  COLUMNARE      
    ## 10  149625          720 E 39TH AV     FRAXINUS   AMERICANA    AUTUMN APPLAUSE
    ## # ℹ 146,601 more rows
    ## # ℹ 15 more variables: common_name <chr>, assigned <chr>, root_barrier <chr>,
    ## #   plant_area <chr>, on_street_block <dbl>, on_street <chr>,
    ## #   neighbourhood_name <chr>, street_side_name <chr>, height_range_id <dbl>,
    ## #   diameter <dbl>, curb <chr>, date_planted <date>, latitude <dbl>,
    ## #   longitude <dbl>, age <drtn>
…
<!--------------------------- Start your work below --------------------------->

**Data for the first question** In this new dataset, we can compare both
the number of the same tree species across different neighbourhoods and
the number of the same trees within different neighbourhoods.

``` r
data_for_first_question <- vancouver_trees %>%
  group_by(neighbourhood_name, species_name) %>%
  summarise(tree_count = n(), .groups = 'drop') %>%
  arrange(-tree_count)
print(data_for_first_question)
```

    ## # A tibble: 3,056 × 3
    ##    neighbourhood_name       species_name tree_count
    ##    <chr>                    <chr>             <int>
    ##  1 VICTORIA-FRASERVIEW      CERASIFERA         1241
    ##  2 KITSILANO                PLATANOIDES        1188
    ##  3 DUNBAR-SOUTHLANDS        PLATANOIDES        1165
    ##  4 SHAUGHNESSY              PLATANOIDES        1139
    ##  5 KERRISDALE               PLATANOIDES        1067
    ##  6 DUNBAR-SOUTHLANDS        CERASIFERA         1061
    ##  7 DOWNTOWN                 RUBRUM             1019
    ##  8 KENSINGTON-CEDAR COTTAGE SERRULATA          1002
    ##  9 DUNBAR-SOUTHLANDS        SERRULATA           994
    ## 10 RENFREW-COLLINGWOOD      SERRULATA           980
    ## # ℹ 3,046 more rows
…
``` r
data_for_second_question <- vancouver_trees %>%
  mutate(age_category = case_when(
    age <= 23*365 ~ "Young",
    age > 23*365 & age <= 28*365 ~ "Middle-aged",
    age > 28*365 ~ "Old",
    TRUE ~ NA_character_
  )) %>%
  select(species_name, age_category)
print(data_for_second_question)
```

    ## # A tibble: 146,611 × 2
    ##    species_name age_category
    ##    <chr>        <chr>       
    ##  1 AMERICANA    Middle-aged 
    ##  2 SERRATA      Middle-aged 
    ##  3 JAPONICA     Old         
    ##  4 AMERICANA    Middle-aged 
    ##  5 CAMPESTRE    Old         
    ##  6 CALLERYANA   <NA>        
    ##  7 PLATANOIDES  Old         
    ##  8 PLATANOIDES  Old         
    ##  9 PLATANOIDES  Old         
    ## 10 AMERICANA    Old         
    ## # ℹ 146,601 more rows
…
<!-------------------------- Start your work below ---------------------------->

I will extract coefficients from the fit model.

``` r
library(broom)
coefficients <- tidy(model)
coefficients
```

    ## # A tibble: 222 × 5
    ##    term                       estimate std.error statistic      p.value
    ##    <chr>                         <dbl>     <dbl>     <dbl>        <dbl>
    ##  1 (Intercept)                   6490.     1208.     5.37  0.0000000786
    ##  2 species_nameACERIFOLIA   X    1759.     1212.     1.45  0.147       
    ##  3 species_nameACUMINATA         1283.     1846.     0.695 0.487       
    ##  4 species_nameACUTISSIMA        3281.     1214.     2.70  0.00690     
    ##  5 species_nameALBA             -1282.     1480.    -0.867 0.386       
    ##  6 species_nameALBA-SINENSIS     2456.     1846.     1.33  0.183       
    ##  7 species_nameALNIFOLIA         2387.     1218.     1.96  0.0500      
    ##  8 species_nameAMERICANA         1032.     1209.     0.853 0.394       
    ##  9 species_nameANAGYROIDES       2087.     2702.     0.772 0.440       
    ## 10 species_nameANTARTICA         2133.     1305.     1.63  0.102       
    ## # ℹ 212 more rows
…
